[gd_scene load_steps=3 format=2]

[ext_resource path="res://scenes/palette-material.tres" type="Material" id=1]
[ext_resource path="res://scripts/SceneManager.gd" type="Script" id=2]

[node name="SceneManager" type="ViewportContainer"]
material = ExtResource( 1 )
anchor_right = 1.0
anchor_bottom = 1.0
stretch = true
script = ExtResource( 2 )

[node name="Viewport" type="Viewport" parent="."]
size = Vector2( 200, 120 )
handle_input_locally = false
render_target_update_mode = 3
