[gd_scene load_steps=11 format=2]

[ext_resource path="res://levels/tileset1.tres" type="TileSet" id=1]
[ext_resource path="res://enemies/spike-hammer.tscn" type="PackedScene" id=2]
[ext_resource path="res://levels/tileset3.tres" type="TileSet" id=3]
[ext_resource path="res://levels/animated-tileset.tres" type="TileSet" id=4]
[ext_resource path="res://levels/spawn-point.tscn" type="PackedScene" id=5]
[ext_resource path="res://obstacles/conveyor.tscn" type="PackedScene" id=6]
[ext_resource path="res://obstacles/spikezone.tscn" type="PackedScene" id=7]
[ext_resource path="res://unlocks/unlock-pickup.tscn" type="PackedScene" id=8]
[ext_resource path="res://unlocks/autofire.png" type="Texture" id=9]

[sub_resource type="RectangleShape2D" id=1]
extents = Vector2( 240, 60 )

[node name="3-2" type="Area2D"]
collision_layer = 0
collision_mask = 5

[node name="Background" type="TileMap" parent="."]
tile_set = ExtResource( 1 )
cell_size = Vector2( 10, 10 )
collision_layer = 0
collision_mask = 0
format = 1

[node name="SpikeHammer" parent="." instance=ExtResource( 2 )]
position = Vector2( 280, 30 )

[node name="SpikeHammer2" parent="." instance=ExtResource( 2 )]
position = Vector2( 350, 30 )

[node name="SpikeHammer3" parent="." instance=ExtResource( 2 )]
position = Vector2( 420, 30 )

[node name="Base" type="TileMap" parent="."]
tile_set = ExtResource( 3 )
cell_size = Vector2( 10, 10 )
format = 1
tile_data = PoolIntArray( 0, 0, 131081, 1, 0, 131081, 2, 0, 131078, 3, 0, 196617, 4, 0, 196617, 5, 0, 131077, 6, 0, 131078, 7, 0, 196617, 8, 0, 196617, 9, 0, 196617, 10, 0, 196617, 11, 0, 196617, 12, 0, 196617, 13, 0, 196617, 14, 0, 131077, 15, 0, 131078, 16, 0, 196617, 17, 0, 196617, 18, 0, 196617, 19, 0, 196619, 26, 0, 65544, 27, 0, 131081, 28, 0, 131081, 29, 0, 131078, 30, 0, 196617, 31, 0, 196617, 32, 0, 196617, 33, 0, 196617, 34, 0, 131077, 35, 0, 131078, 36, 0, 196617, 37, 0, 196617, 38, 0, 196617, 39, 0, 196617, 40, 0, 196617, 41, 0, 131077, 42, 0, 131078, 43, 0, 196617, 44, 0, 196617, 45, 0, 196617, 46, 0, 196617, 47, 0, 196617, 65536, 0, 196617, 65537, 0, 196617, 65538, 0, 196619, 65541, 0, 65544, 65542, 0, 131083, 65550, 0, 65544, 65551, 0, 131083, 65562, 0, 65544, 65563, 0, 131081, 65564, 0, 131081, 65565, 0, 131083, 65570, 0, 65544, 65571, 0, 131083, 65577, 0, 65544, 65578, 0, 131083, 131077, 0, 65544, 131078, 0, 131083, 131085, 0, 196609, 131086, 0, 131080, 131087, 0, 65547, 131088, 0, 196611, 131098, 0, 196616, 131099, 0, 196617, 131100, 0, 196617, 131101, 0, 196619, 131106, 0, 196616, 131107, 0, 196619, 131113, 0, 196616, 131114, 0, 196619, 196612, 0, 196609, 196613, 0, 196613, 196614, 0, 196614, 196615, 0, 196611, 196622, 0, 65544, 196623, 0, 131083, 262157, 0, 196609, 262158, 0, 196613, 262159, 0, 196614, 262160, 0, 196611, 393245, 0, 8, 393246, 0, 10, 393247, 0, 10, 393248, 0, 10, 393249, 0, 10, 393250, 0, 10, 393251, 0, 10, 393252, 0, 10, 393253, 0, 10, 393254, 0, 10, 393255, 0, 10, 393256, 0, 10, 393257, 0, 10, 393258, 0, 11, 458770, 0, 196608, 458781, 0, 65544, 458782, 0, 131081, 458783, 0, 131081, 458784, 0, 131081, 458785, 0, 131081, 458786, 0, 131081, 458787, 0, 131081, 458788, 0, 131081, 458789, 0, 131081, 458790, 0, 131081, 458791, 0, 131081, 458792, 0, 131081, 458793, 0, 131081, 458794, 0, 131083, 524317, 0, 65544, 524318, 0, 131081, 524319, 0, 131081, 524320, 0, 131081, 524321, 0, 131081, 524322, 0, 131081, 524323, 0, 131081, 524324, 0, 131081, 524325, 0, 131081, 524326, 0, 131081, 524327, 0, 131081, 524328, 0, 131081, 524329, 0, 131081, 524330, 0, 131083, 589851, 0, 196609, 589852, 0, 196610, 589853, 0, 131080, 589854, 0, 131081, 589855, 0, 131081, 589856, 0, 131081, 589857, 0, 131081, 589858, 0, 131081, 589859, 0, 131081, 589860, 0, 131081, 589861, 0, 131081, 589862, 0, 131081, 589863, 0, 131081, 589864, 0, 131081, 589865, 0, 131081, 589866, 0, 65542, 589867, 0, 10, 589868, 0, 10, 589869, 0, 10, 589870, 0, 10, 589871, 0, 10, 655360, 0, 10, 655361, 0, 10, 655362, 0, 10, 655363, 0, 11, 655366, 0, 8, 655367, 0, 10, 655368, 0, 10, 655369, 0, 10, 655370, 0, 10, 655371, 0, 11, 655375, 0, 8, 655376, 0, 11, 655380, 0, 8, 655381, 0, 10, 655382, 0, 11, 655389, 0, 65544, 655390, 0, 131081, 655391, 0, 131081, 655392, 0, 131081, 655393, 0, 131081, 655394, 0, 131081, 655395, 0, 131081, 655396, 0, 131081, 655397, 0, 131081, 655398, 0, 131081, 655399, 0, 131081, 655400, 0, 131081, 655401, 0, 131081, 655402, 0, 131081, 655403, 0, 131081, 655404, 0, 131081, 655405, 0, 131081, 655406, 0, 131081, 655407, 0, 131081, 720896, 0, 131081, 720897, 0, 131081, 720898, 0, 131081, 720899, 0, 65542, 720900, 0, 10, 720901, 0, 10, 720902, 0, 65541, 720903, 0, 131081, 720904, 0, 131081, 720905, 0, 131081, 720906, 0, 131081, 720907, 0, 131083, 720911, 0, 65544, 720912, 0, 65542, 720913, 0, 10, 720914, 0, 10, 720915, 0, 10, 720916, 0, 65541, 720917, 0, 131081, 720918, 0, 65542, 720919, 0, 11, 720925, 0, 65544, 720926, 0, 131081, 720927, 0, 131081, 720928, 0, 131081, 720929, 0, 131081, 720930, 0, 131081, 720931, 0, 131081, 720932, 0, 131081, 720933, 0, 131081, 720934, 0, 131081, 720935, 0, 131081, 720936, 0, 131081, 720937, 0, 131081, 720938, 0, 131081, 720939, 0, 131081, 720940, 0, 131081, 720941, 0, 131081, 720942, 0, 131081, 720943, 0, 131081 )

[node name="Animated" type="TileMap" parent="."]
tile_set = ExtResource( 4 )
cell_size = Vector2( 10, 10 )
format = 1
tile_data = PoolIntArray( 327710, 2, 0, 327711, 2, 1, 327712, 2, 1, 327713, 2, 4, 327717, 1, 0, 327718, 1, 1, 327719, 1, 2, 327720, 1, 4, 393237, 1, 0, 393238, 1, 1, 393239, 1, 2, 393240, 1, 3, 393241, 1, 1, 393242, 1, 2, 393243, 1, 3, 393244, 1, 4, 524331, 2, 0, 524332, 2, 1, 524333, 2, 2, 524334, 2, 3, 524335, 2, 1, 589824, 2, 1, 589825, 2, 2, 589826, 2, 3, 589827, 2, 1, 589828, 2, 2, 589829, 2, 3, 589830, 2, 1, 589831, 2, 2, 589832, 2, 3, 589833, 2, 1, 589834, 2, 2, 589835, 2, 4, 589839, 1, 0, 589840, 1, 1, 589841, 1, 2, 589842, 1, 3, 589843, 1, 1, 589844, 1, 2, 589845, 1, 3, 589846, 1, 1, 589847, 1, 2, 589848, 1, 3, 589849, 1, 4, 655361, 0, 0, 655362, 0, 0, 655363, 0, 0, 655364, 0, 0, 655369, 0, 0, 655370, 0, 0, 655371, 0, 0, 655372, 0, 0, 720896, 0, 0, 720897, 0, 0, 720898, 0, 0, 720899, 0, 0, 720900, 0, 0, 720901, 0, 0, 720902, 0, 0, 720903, 0, 0, 720904, 0, 0, 720905, 0, 0, 720906, 0, 0, 720907, 0, 0, 720908, 0, 0 )

[node name="SpawnPoint" parent="." instance=ExtResource( 5 )]
position = Vector2( 19, 83 )

[node name="Conveyor" parent="." instance=ExtResource( 6 )]
position = Vector2( 60, 90 )
scale = Vector2( 12, 1 )

[node name="Conveyor4" parent="." instance=ExtResource( 6 )]
position = Vector2( 320, 50 )
scale = Vector2( 4, 1 )

[node name="Conveyor6" parent="." instance=ExtResource( 6 )]
position = Vector2( 455, 80 )
scale = Vector2( 5, 1 )

[node name="Conveyor5" parent="." instance=ExtResource( 6 )]
position = Vector2( 390, 50 )
scale = Vector2( 4, 1 )
left = true

[node name="Conveyor2" parent="." instance=ExtResource( 6 )]
position = Vector2( 205, 90 )
scale = Vector2( 11, 1 )
left = true

[node name="Conveyor3" parent="." instance=ExtResource( 6 )]
position = Vector2( 250, 60 )
scale = Vector2( 8, 1 )
left = true

[node name="CollisionShape2D" type="CollisionShape2D" parent="."]
position = Vector2( 240, 60 )
shape = SubResource( 1 )

[node name="Spikezone" parent="." instance=ExtResource( 7 )]
position = Vector2( 150, 125 )

[node name="Spikezone2" parent="." instance=ExtResource( 7 )]
position = Vector2( 290, 125 )

[node name="UnlockPickup" parent="." instance=ExtResource( 8 )]
position = Vector2( 284, 84 )
texture = ExtResource( 9 )
feature = "autofire"
