[gd_scene load_steps=11 format=2]

[ext_resource path="res://levels/tileset3.tres" type="TileSet" id=1]
[ext_resource path="res://levels/animated-tileset.tres" type="TileSet" id=2]
[ext_resource path="res://levels/spawn-point.tscn" type="PackedScene" id=3]
[ext_resource path="res://obstacles/conveyor.tscn" type="PackedScene" id=4]
[ext_resource path="res://enemies/metal-man.tscn" type="PackedScene" id=5]
[ext_resource path="res://obstacles/door.tscn" type="PackedScene" id=6]
[ext_resource path="res://levels/level3/BossTrigger.gd" type="Script" id=7]
[ext_resource path="res://levels/level3/EndTrigger.gd" type="Script" id=8]

[sub_resource type="RectangleShape2D" id=1]
extents = Vector2( 100, 60 )

[sub_resource type="RectangleShape2D" id=2]
extents = Vector2( 20, 60 )

[node name="3-boss" type="Area2D"]
collision_layer = 0
collision_mask = 5

[node name="CollisionShape2D" type="CollisionShape2D" parent="."]
visible = false
position = Vector2( 100, 60 )
shape = SubResource( 1 )

[node name="Base" type="TileMap" parent="."]
tile_set = ExtResource( 1 )
cell_size = Vector2( 10, 10 )
format = 1
tile_data = PoolIntArray( -65536, 0, 10, -65535, 0, 10, -65534, 0, 10, -65533, 0, 10, -65532, 0, 10, -65531, 0, 10, -65530, 0, 10, -65529, 0, 10, -65528, 0, 10, -65527, 0, 10, -65526, 0, 10, -65525, 0, 10, -65524, 0, 10, -65523, 0, 10, -65522, 0, 10, -65521, 0, 10, -65520, 0, 10, -65519, 0, 10, -65518, 0, 10, -65517, 0, 10, -65516, 0, 11, 0, 0, 131078, 1, 0, 196617, 2, 0, 196617, 3, 0, 196617, 4, 0, 196617, 5, 0, 196617, 6, 0, 196617, 7, 0, 196617, 8, 0, 196617, 9, 0, 196617, 10, 0, 196617, 11, 0, 196617, 12, 0, 196617, 13, 0, 196617, 14, 0, 196617, 15, 0, 196617, 16, 0, 196617, 17, 0, 196617, 18, 0, 196617, 19, 0, 131077, 20, 0, 131083, 65536, 0, 131083, 65555, 0, 65544, 65556, 0, 131083, 131072, 0, 131083, 131091, 0, 65544, 131092, 0, 131083, 196608, 0, 131083, 196627, 0, 65544, 196628, 0, 131083, 262144, 0, 131083, 262163, 0, 65544, 262164, 0, 131083, 327680, 0, 196619, 327699, 0, 196616, 327700, 0, 196619, 589824, 0, 11, 589843, 0, 8, 589844, 0, 11, 655360, 0, 65542, 655361, 0, 10, 655362, 0, 10, 655363, 0, 10, 655364, 0, 10, 655365, 0, 10, 655366, 0, 10, 655367, 0, 10, 655368, 0, 10, 655369, 0, 10, 655370, 0, 10, 655371, 0, 10, 655372, 0, 10, 655373, 0, 10, 655374, 0, 10, 655375, 0, 10, 655376, 0, 10, 655377, 0, 10, 655378, 0, 10, 655379, 0, 65541, 655380, 0, 131083, 720896, 0, 131081, 720897, 0, 131081, 720898, 0, 131081, 720899, 0, 131081, 720900, 0, 131081, 720901, 0, 131081, 720902, 0, 131081, 720903, 0, 131081, 720904, 0, 131081, 720905, 0, 131081, 720906, 0, 131081, 720907, 0, 131081, 720908, 0, 131081, 720909, 0, 131081, 720910, 0, 131081, 720911, 0, 131081, 720912, 0, 131081, 720913, 0, 131081, 720914, 0, 131081, 720915, 0, 131081, 720916, 0, 131083, 786432, 0, 196617, 786433, 0, 196617, 786434, 0, 196617, 786435, 0, 196617, 786436, 0, 196617, 786437, 0, 196617, 786438, 0, 196617, 786439, 0, 196617, 786440, 0, 196617, 786441, 0, 196617, 786442, 0, 196617, 786443, 0, 196617, 786444, 0, 196617, 786445, 0, 196617, 786446, 0, 196617, 786447, 0, 196617, 786448, 0, 196617, 786449, 0, 196617, 786450, 0, 196617, 786451, 0, 196617, 786452, 0, 196619 )

[node name="Animated" type="TileMap" parent="."]
tile_set = ExtResource( 2 )
cell_size = Vector2( 10, 10 )
format = 1
tile_data = PoolIntArray( 589825, 2, 0, 589826, 2, 1, 589827, 2, 2, 589828, 2, 3, 589829, 2, 1, 589830, 2, 2, 589831, 2, 3, 589832, 2, 1, 589833, 2, 4, 589834, 1, 0, 589835, 1, 1, 589836, 1, 2, 589837, 1, 3, 589838, 1, 1, 589839, 1, 2, 589840, 1, 3, 589841, 1, 1, 589842, 1, 4, 655361, 0, 0, 655362, 0, 0, 655363, 0, 0, 655364, 0, 0, 655369, 0, 0, 655370, 0, 0, 655371, 0, 0, 655372, 0, 0, 720896, 0, 0, 720897, 0, 0, 720898, 0, 0, 720899, 0, 0, 720900, 0, 0, 720901, 0, 0, 720902, 0, 0, 720903, 0, 0, 720904, 0, 0, 720905, 0, 0, 720906, 0, 0, 720907, 0, 0, 720908, 0, 0 )

[node name="SpawnPoint" parent="." instance=ExtResource( 3 )]
position = Vector2( 35, 83 )

[node name="Conveyor" parent="." instance=ExtResource( 4 )]
position = Vector2( 145, 90 )
scale = Vector2( 9, 1 )
left = true

[node name="Conveyor2" parent="." instance=ExtResource( 4 )]
position = Vector2( 55, 90 )
scale = Vector2( 9, 1 )

[node name="MetalMan" parent="." instance=ExtResource( 5 )]
position = Vector2( 160, 78 )

[node name="Door" parent="." instance=ExtResource( 6 )]
visible = false
position = Vector2( -2, 60 )

[node name="CollisionShape2D" parent="Door/StaticBody2D" index="0"]
disabled = true

[node name="Door2" parent="." instance=ExtResource( 6 )]
position = Vector2( 190, 60 )

[node name="Area2D" type="Area2D" parent="."]
position = Vector2( -10, 0 )
script = ExtResource( 7 )

[node name="CollisionShape2D" type="CollisionShape2D" parent="Area2D"]
position = Vector2( 50, 60 )
shape = SubResource( 2 )

[node name="Area2D2" type="Area2D" parent="."]
position = Vector2( 166, 60 )
script = ExtResource( 8 )

[node name="CollisionShape2D" type="CollisionShape2D" parent="Area2D2"]
position = Vector2( 50, 60 )
shape = SubResource( 2 )

[editable path="Door"]

[editable path="Door2"]
