[gd_scene load_steps=4 format=2]

[ext_resource path="res://projectiles/EnemyProjectile.gd" type="Script" id=1]
[ext_resource path="res://enemies/cannonball.png" type="Texture" id=2]

[sub_resource type="CircleShape2D" id=1]
radius = 3.5

[node name="Cannonball" type="Area2D"]
position = Vector2( 0, -2 )
collision_layer = 4
script = ExtResource( 1 )
damage = 3

[node name="Sprite" type="Sprite" parent="."]
position = Vector2( 0, 2 )
texture = ExtResource( 2 )

[node name="CollisionShape2D" type="CollisionShape2D" parent="."]
position = Vector2( 0, 2 )
shape = SubResource( 1 )
