[gd_scene load_steps=10 format=2]

[ext_resource path="res://enemies/Cannon.gd" type="Script" id=1]
[ext_resource path="res://enemies/enemy-explosion-big.tscn" type="PackedScene" id=2]
[ext_resource path="res://enemies/cannon03.png" type="Texture" id=3]
[ext_resource path="res://enemies/cannon01.png" type="Texture" id=4]
[ext_resource path="res://enemies/cannon04.png" type="Texture" id=5]
[ext_resource path="res://enemies/cannon02.png" type="Texture" id=6]
[ext_resource path="res://enemies/cannon00.png" type="Texture" id=7]

[sub_resource type="SpriteFrames" id=1]
animations = [ {
"frames": [ ExtResource( 3 ) ],
"loop": true,
"name": "ne",
"speed": 5.0
}, {
"frames": [ ExtResource( 4 ) ],
"loop": true,
"name": "nw",
"speed": 5.0
}, {
"frames": [ ExtResource( 5 ) ],
"loop": true,
"name": "e",
"speed": 5.0
}, {
"frames": [ ExtResource( 6 ) ],
"loop": true,
"name": "n",
"speed": 5.0
}, {
"frames": [ ExtResource( 7 ) ],
"loop": true,
"name": "w",
"speed": 5.0
} ]

[sub_resource type="RectangleShape2D" id=2]
extents = Vector2( 8, 7 )

[node name="Cannon" type="Area2D"]
position = Vector2( 0, -2 )
collision_layer = 2
script = ExtResource( 1 )
health = 6
damage = 2
Explosion = ExtResource( 2 )

[node name="AnimatedSprite" type="AnimatedSprite" parent="."]
position = Vector2( 0, -3 )
frames = SubResource( 1 )
animation = "e"
playing = true

[node name="CollisionShape2D" type="CollisionShape2D" parent="."]
position = Vector2( 0, 1 )
shape = SubResource( 2 )
