[gd_scene load_steps=4 format=2]

[ext_resource path="res://sprites/100x100-circle-dark.png" type="Texture" id=1]
[ext_resource path="res://sfx/big-explosion.wav" type="AudioStream" id=2]

[sub_resource type="Curve" id=1]
_data = [ Vector2( 0, 1 ), 0.0, -1.0, 0, 1, Vector2( 1, 0 ), -0.280926, 0.0, 0, 0 ]

[node name="EnemyExplosionBig" type="CPUParticles2D"]
emitting = false
amount = 20
lifetime = 0.25
one_shot = true
texture = ExtResource( 1 )
emission_shape = 2
emission_rect_extents = Vector2( 10, 10 )
spread = 180.0
flatness = 1.0
gravity = Vector2( 0, 0 )
initial_velocity = 0.0
damping = 8.3
scale_amount = 0.1
scale_amount_random = 0.05
scale_amount_curve = SubResource( 1 )

[node name="AudioStreamPlayer2D" type="AudioStreamPlayer" parent="."]
stream = ExtResource( 2 )
volume_db = 7.0
autoplay = true
