[gd_scene load_steps=6 format=2]

[ext_resource path="res://enemies/Gear.gd" type="Script" id=1]
[ext_resource path="res://enemies/enemy-explosion-big.tscn" type="PackedScene" id=2]
[ext_resource path="res://enemies/gear-inactive.png" type="Texture" id=3]
[ext_resource path="res://enemies/gear.png" type="Texture" id=4]

[sub_resource type="CircleShape2D" id=1]
radius = 8.0

[node name="Gear" type="Area2D"]
position = Vector2( 0, -2 )
collision_layer = 2
script = ExtResource( 1 )
health = 6
damage = 3
Explosion = ExtResource( 2 )

[node name="InactiveSprite" type="Sprite" parent="."]
visible = false
position = Vector2( 0, 2 )
texture = ExtResource( 3 )

[node name="Sprite" type="Sprite" parent="."]
position = Vector2( 0, 2 )
texture = ExtResource( 4 )

[node name="CollisionShape2D" type="CollisionShape2D" parent="."]
position = Vector2( 0, 2 )
shape = SubResource( 1 )
