[gd_resource type="DynamicFont" load_steps=2 format=2]

[ext_resource path="res://fonts/source/DDRKirbyISQ_1_01.ttf" type="DynamicFontData" id=1]

[resource]
size = 7
outline_color = Color( 0, 0, 0, 1 )
font_data = ExtResource( 1 )
