[gd_scene load_steps=6 format=2]

[ext_resource path="res://enemies/spike-hammer.tscn" type="PackedScene" id=1]
[ext_resource path="res://levels/tileset1.tres" type="TileSet" id=2]
[ext_resource path="res://levels/animated-tileset.tres" type="TileSet" id=3]
[ext_resource path="res://levels/spawn-point.tscn" type="PackedScene" id=4]

[sub_resource type="RectangleShape2D" id=1]
extents = Vector2( 100, 60 )

[node name="1-10" type="Area2D"]
collision_layer = 0
collision_mask = 5

[node name="SpikeHammer" parent="." instance=ExtResource( 1 )]
position = Vector2( 151, 20 )

[node name="SpikeHammer2" parent="." instance=ExtResource( 1 )]
position = Vector2( 190, 20 )

[node name="CollisionShape2D" type="CollisionShape2D" parent="."]
visible = false
position = Vector2( 100, 60 )
shape = SubResource( 1 )

[node name="Base" type="TileMap" parent="."]
tile_set = ExtResource( 2 )
cell_size = Vector2( 10, 10 )
format = 1
tile_data = PoolIntArray( 0, 0, 131081, 1, 0, 131081, 2, 0, 131081, 3, 0, 131081, 4, 0, 131081, 5, 0, 131081, 6, 0, 131081, 7, 0, 131083, 13, 0, 65544, 14, 0, 131081, 15, 0, 131081, 16, 0, 131081, 17, 0, 131081, 18, 0, 131081, 19, 0, 131081, 65536, 0, 131081, 65537, 0, 131081, 65538, 0, 131081, 65539, 0, 131081, 65540, 0, 131081, 65541, 0, 131081, 65542, 0, 131081, 65543, 0, 65542, 65544, 0, 11, 65549, 0, 196616, 65550, 0, 196617, 65551, 0, 196617, 65552, 0, 196617, 65553, 0, 196617, 65554, 0, 196617, 65555, 0, 196617, 131072, 0, 131081, 131073, 0, 131081, 131074, 0, 131081, 131075, 0, 131081, 131076, 0, 131081, 131077, 0, 131081, 131078, 0, 131081, 131079, 0, 131081, 131080, 0, 131083, 196608, 0, 131081, 196609, 0, 131081, 196610, 0, 131081, 196611, 0, 131081, 196612, 0, 131081, 196613, 0, 131081, 196614, 0, 131081, 196615, 0, 131081, 196616, 0, 131083, 262144, 0, 131081, 262145, 0, 131081, 262146, 0, 131081, 262147, 0, 131081, 262148, 0, 131081, 262149, 0, 131081, 262150, 0, 131081, 262151, 0, 131081, 262152, 0, 131083, 327680, 0, 131081, 327681, 0, 131081, 327682, 0, 131081, 327683, 0, 131081, 327684, 0, 131081, 327685, 0, 131081, 327686, 0, 131081, 327687, 0, 131081, 327688, 0, 65542, 327689, 0, 10, 327690, 0, 10, 327691, 0, 10, 327692, 0, 11, 393216, 0, 131081, 393217, 0, 131081, 393218, 0, 131081, 393219, 0, 131081, 393220, 0, 131081, 393221, 0, 131081, 393222, 0, 131081, 393223, 0, 131081, 393224, 0, 131081, 393225, 0, 131081, 393226, 0, 131081, 393227, 0, 131081, 393228, 0, 65542, 393229, 0, 10, 393230, 0, 10, 393231, 0, 10, 393232, 0, 10, 393233, 0, 10, 393234, 0, 10, 393235, 0, 10, 458752, 0, 196617, 458753, 0, 196617, 458754, 0, 196617, 458755, 0, 196617, 458756, 0, 196617, 458757, 0, 196617, 458758, 0, 196617, 458759, 0, 131077, 458760, 0, 131081, 458761, 0, 131081, 458762, 0, 131081, 458763, 0, 131081, 458764, 0, 131081, 458765, 0, 131081, 458766, 0, 131081, 458767, 0, 131081, 458768, 0, 131081, 458769, 0, 131081, 458770, 0, 131081, 458771, 0, 131081, 524295, 0, 65544, 524296, 0, 131081, 524297, 0, 131081, 524298, 0, 131081, 524299, 0, 131081, 524300, 0, 131081, 524301, 0, 131081, 524302, 0, 131081, 524303, 0, 131081, 524304, 0, 131081, 524305, 0, 131081, 524306, 0, 131081, 524307, 0, 131081, 589831, 0, 65544, 589832, 0, 131081, 589833, 0, 131081, 589834, 0, 131081, 589835, 0, 131081, 589836, 0, 131081, 589837, 0, 131081, 589838, 0, 131081, 589839, 0, 131081, 589840, 0, 131081, 589841, 0, 131081, 589842, 0, 131081, 589843, 0, 131081, 655367, 0, 65544, 655368, 0, 131081, 655369, 0, 131081, 655370, 0, 131081, 655371, 0, 131081, 655372, 0, 131081, 655373, 0, 131081, 655374, 0, 131081, 655375, 0, 131081, 655376, 0, 131081, 655377, 0, 131081, 655378, 0, 131081, 655379, 0, 131081, 720896, 0, 10, 720897, 0, 10, 720898, 0, 10, 720899, 0, 11, 720903, 0, 65544, 720904, 0, 131081, 720905, 0, 131081, 720906, 0, 131081, 720907, 0, 131081, 720908, 0, 131081, 720909, 0, 131081, 720910, 0, 131081, 720911, 0, 131081, 720912, 0, 131081, 720913, 0, 131081, 720914, 0, 131081, 720915, 0, 131081 )

[node name="Animated" type="TileMap" parent="."]
tile_set = ExtResource( 3 )
cell_size = Vector2( 10, 10 )
format = 1
tile_data = PoolIntArray( 327693, 2, 0, 327694, 2, 1, 327695, 2, 2, 327696, 2, 3, 327697, 2, 1, 327698, 2, 2, 327699, 2, 3, 589827, 0, 0, 589828, 0, 0, 655361, 0, 0, 655362, 0, 0, 655363, 0, 0, 655364, 0, 0, 655369, 0, 0, 655370, 0, 0, 655371, 0, 0, 655372, 0, 0, 720896, 0, 0, 720897, 0, 0, 720898, 0, 0, 720899, 0, 0, 720900, 0, 0, 720901, 0, 0, 720902, 0, 0, 720903, 0, 0, 720904, 0, 0, 720905, 0, 0, 720906, 0, 0, 720907, 0, 0, 720908, 0, 0 )

[node name="SpawnPoint" parent="." instance=ExtResource( 4 )]
position = Vector2( 10, 103 )
