[gd_scene load_steps=11 format=2]

[ext_resource path="res://levels/tileset1.tres" type="TileSet" id=1]
[ext_resource path="res://levels/animated-tileset.tres" type="TileSet" id=2]
[ext_resource path="res://levels/spawn-point.tscn" type="PackedScene" id=3]
[ext_resource path="res://obstacles/conveyor.tscn" type="PackedScene" id=4]
[ext_resource path="res://unlocks/unlock-pickup.tscn" type="PackedScene" id=5]
[ext_resource path="res://unlocks/health.png" type="Texture" id=6]
[ext_resource path="res://enemies/path-enemy.tscn" type="PackedScene" id=7]

[sub_resource type="RectangleShape2D" id=1]
extents = Vector2( 100, 60 )

[sub_resource type="Curve2D" id=2]
_data = {
"points": PoolVector2Array( 0, 0, 0, 0, 0, 0, 0, 0, 0, 0, 0, -40, 0, 0, 0, 0, 0, 0 )
}

[sub_resource type="Curve2D" id=3]
_data = {
"points": PoolVector2Array( 0, 0, 0, 0, 30, -50, 0, 0, 0, 0, 0, -50, 0, 0, 0, 0, 0, 0, 0, 0, 0, 0, 30, 0, 0, 0, 0, 0, 30, -50 )
}

[node name="1-13" type="Area2D"]
collision_layer = 0
collision_mask = 5

[node name="CollisionShape2D" type="CollisionShape2D" parent="."]
visible = false
position = Vector2( 100, 60 )
shape = SubResource( 1 )

[node name="Base" type="TileMap" parent="."]
tile_set = ExtResource( 1 )
cell_size = Vector2( 10, 10 )
format = 1
tile_data = PoolIntArray( 0, 0, 131081, 1, 0, 131081, 2, 0, 131081, 3, 0, 131081, 4, 0, 131081, 5, 0, 131081, 6, 0, 131081, 7, 0, 131081, 8, 0, 131081, 9, 0, 131081, 10, 0, 131081, 11, 0, 131081, 12, 0, 131081, 13, 0, 131081, 14, 0, 131081, 15, 0, 131081, 16, 0, 131081, 17, 0, 131081, 18, 0, 131081, 19, 0, 131081, 65536, 0, 131081, 65537, 0, 131081, 65538, 0, 131081, 65539, 0, 131081, 65540, 0, 131081, 65541, 0, 131081, 65542, 0, 131081, 65543, 0, 131081, 65544, 0, 131081, 65545, 0, 131081, 65546, 0, 131081, 65547, 0, 131081, 65548, 0, 131081, 65549, 0, 131081, 65550, 0, 131081, 65551, 0, 131081, 65552, 0, 131081, 65553, 0, 131081, 65554, 0, 131081, 65555, 0, 131081, 131072, 0, 196617, 131073, 0, 196617, 131074, 0, 196617, 131075, 0, 196617, 131076, 0, 196617, 131077, 0, 196617, 131078, 0, 196617, 131079, 0, 196617, 131080, 0, 196617, 131081, 0, 196617, 131082, 0, 196617, 131083, 0, 196617, 131084, 0, 196617, 131085, 0, 196617, 131086, 0, 196617, 131087, 0, 196617, 131088, 0, 196617, 131089, 0, 196617, 131090, 0, 196617, 131091, 0, 196617, 393219, 0, 8, 393220, 0, 10, 393221, 0, 11, 458752, 0, 10, 458753, 0, 10, 458754, 0, 10, 458755, 0, 65541, 458756, 0, 131081, 458757, 0, 131083, 458762, 0, 8, 458763, 0, 11, 458768, 0, 8, 458769, 0, 10, 458770, 0, 10, 458771, 0, 10, 524288, 0, 131081, 524289, 0, 131081, 524290, 0, 131081, 524291, 0, 131081, 524292, 0, 131081, 524293, 0, 65542, 524294, 0, 10, 524295, 0, 10, 524296, 0, 10, 524297, 0, 10, 524298, 0, 65541, 524299, 0, 131083, 524304, 0, 65544, 524305, 0, 131081, 524306, 0, 131081, 524307, 0, 131081, 589824, 0, 131081, 589825, 0, 131081, 589826, 0, 131081, 589827, 0, 131081, 589828, 0, 131081, 589829, 0, 131081, 589830, 0, 131081, 589831, 0, 131081, 589832, 0, 131081, 589833, 0, 131081, 589834, 0, 131081, 589835, 0, 65542, 589836, 0, 10, 589837, 0, 10, 589838, 0, 10, 589839, 0, 10, 589840, 0, 65541, 589841, 0, 131081, 589842, 0, 131081, 589843, 0, 131081, 655360, 0, 131081, 655361, 0, 131081, 655362, 0, 131081, 655363, 0, 131081, 655364, 0, 131081, 655365, 0, 131081, 655366, 0, 131081, 655367, 0, 131081, 655368, 0, 131081, 655369, 0, 131081, 655370, 0, 131081, 655371, 0, 131081, 655372, 0, 131081, 655373, 0, 131081, 655374, 0, 131081, 655375, 0, 131081, 655376, 0, 131081, 655377, 0, 131081, 655378, 0, 131081, 655379, 0, 131081, 720896, 0, 131081, 720897, 0, 131081, 720898, 0, 131081, 720899, 0, 131081, 720900, 0, 131081, 720901, 0, 131081, 720902, 0, 131081, 720903, 0, 131081, 720904, 0, 131081, 720905, 0, 131081, 720906, 0, 131081, 720907, 0, 131081, 720908, 0, 131081, 720909, 0, 131081, 720910, 0, 131081, 720911, 0, 131081, 720912, 0, 131081, 720913, 0, 131081, 720914, 0, 131081, 720915, 0, 131081 )

[node name="Animated" type="TileMap" parent="."]
tile_set = ExtResource( 2 )
cell_size = Vector2( 10, 10 )
format = 1
tile_data = PoolIntArray( 393216, 2, 1, 393217, 2, 2, 393218, 2, 4, 589827, 0, 0, 589828, 0, 0, 655361, 0, 0, 655362, 0, 0, 655363, 0, 0, 655364, 0, 0, 655369, 0, 0, 655370, 0, 0, 655371, 0, 0, 655372, 0, 0, 720896, 0, 0, 720897, 0, 0, 720898, 0, 0, 720899, 0, 0, 720900, 0, 0, 720901, 0, 0, 720902, 0, 0, 720903, 0, 0, 720904, 0, 0, 720905, 0, 0, 720906, 0, 0, 720907, 0, 0, 720908, 0, 0 )

[node name="SpawnPoint" parent="." instance=ExtResource( 3 )]
position = Vector2( 36, 53 )

[node name="Conveyor" parent="." instance=ExtResource( 4 )]
position = Vector2( 15, 60 )
scale = Vector2( 3, 1 )

[node name="UnlockPickup" parent="." instance=ExtResource( 5 )]
position = Vector2( 175, 64 )
texture = ExtResource( 6 )
feature = "health"

[node name="PathEnemy" parent="." instance=ExtResource( 7 )]
position = Vector2( 95, 75 )
curve = SubResource( 2 )

[node name="PathEnemy2" parent="." instance=ExtResource( 7 )]
position = Vector2( 125, 85 )
curve = SubResource( 3 )
