[gd_scene load_steps=7 format=2]

[ext_resource path="res://levels/tileset1.tres" type="TileSet" id=1]
[ext_resource path="res://levels/animated-tileset.tres" type="TileSet" id=2]
[ext_resource path="res://obstacles/conveyor.tscn" type="PackedScene" id=3]
[ext_resource path="res://levels/spawn-point.tscn" type="PackedScene" id=4]
[ext_resource path="res://unlocks/unlock-pickup.tscn" type="PackedScene" id=5]

[sub_resource type="RectangleShape2D" id=1]
extents = Vector2( 100, 60 )

[node name="1-4" type="Area2D"]
collision_layer = 0
collision_mask = 5

[node name="CollisionShape2D" type="CollisionShape2D" parent="."]
visible = false
position = Vector2( 100, 60 )
shape = SubResource( 1 )

[node name="Base" type="TileMap" parent="."]
tile_set = ExtResource( 1 )
cell_size = Vector2( 10, 10 )
format = 1
tile_data = PoolIntArray( -65536, 0, 8, -65535, 0, 10, -65534, 0, 10, -65533, 0, 10, -65532, 0, 10, -65531, 0, 10, -65530, 0, 10, -65529, 0, 10, -65528, 0, 10, -65527, 0, 10, -65526, 0, 10, -65525, 0, 10, -65524, 0, 10, -65523, 0, 10, -65522, 0, 10, -65521, 0, 10, -65520, 0, 10, -65519, 0, 10, -65518, 0, 10, -65517, 0, 11, 0, 0, 131081, 1, 0, 131081, 2, 0, 131081, 3, 0, 131081, 4, 0, 131081, 5, 0, 131081, 6, 0, 131081, 7, 0, 131081, 8, 0, 131081, 9, 0, 131081, 10, 0, 131081, 11, 0, 131081, 12, 0, 131081, 13, 0, 131081, 14, 0, 131081, 15, 0, 131081, 16, 0, 131081, 17, 0, 131081, 18, 0, 131081, 19, 0, 131081, 65536, 0, 131081, 65537, 0, 131081, 65538, 0, 131081, 65539, 0, 131081, 65540, 0, 131081, 65541, 0, 131081, 65542, 0, 131081, 65543, 0, 131081, 65544, 0, 131081, 65545, 0, 131078, 65546, 0, 196617, 65547, 0, 196617, 65548, 0, 196617, 65549, 0, 196617, 65550, 0, 131077, 65551, 0, 131081, 65552, 0, 131081, 65553, 0, 131081, 65554, 0, 131081, 65555, 0, 131081, 131072, 0, 131081, 131073, 0, 131081, 131074, 0, 131081, 131075, 0, 131081, 131076, 0, 131081, 131077, 0, 131081, 131078, 0, 131081, 131079, 0, 131081, 131080, 0, 131078, 131081, 0, 196619, 131086, 0, 196616, 131087, 0, 131077, 131088, 0, 131081, 131089, 0, 131081, 131090, 0, 131081, 131091, 0, 131081, 196608, 0, 131081, 196609, 0, 131081, 196610, 0, 131081, 196611, 0, 131081, 196612, 0, 131081, 196613, 0, 131078, 196614, 0, 196617, 196615, 0, 196617, 196616, 0, 196619, 196623, 0, 196616, 196624, 0, 131077, 196625, 0, 131081, 196626, 0, 131081, 196627, 0, 131081, 262144, 0, 131081, 262145, 0, 131081, 262146, 0, 131081, 262147, 0, 131081, 262148, 0, 131081, 262149, 0, 131083, 262160, 0, 196616, 262161, 0, 131077, 262162, 0, 131081, 262163, 0, 131081, 327680, 0, 196617, 327681, 0, 196617, 327682, 0, 196617, 327683, 0, 196617, 327684, 0, 196617, 327685, 0, 196619, 327697, 0, 65544, 327698, 0, 131081, 327699, 0, 131081, 393233, 0, 196616, 393234, 0, 196617, 393235, 0, 196617, 458767, 2, 0, 458768, 2, 0, 524296, 0, 8, 524297, 0, 10, 524298, 0, 11, 589824, 0, 10, 589825, 0, 10, 589826, 0, 10, 589827, 0, 10, 589828, 0, 10, 589829, 0, 10, 589830, 0, 10, 589831, 0, 10, 589832, 0, 65541, 589833, 0, 131081, 589834, 0, 65542, 589835, 0, 10, 589836, 0, 11, 655360, 0, 131081, 655361, 0, 131081, 655362, 0, 131081, 655363, 0, 131081, 655364, 0, 131081, 655365, 0, 131081, 655366, 0, 131081, 655367, 0, 131081, 655368, 0, 131081, 655369, 0, 131081, 655370, 0, 131081, 655371, 0, 131081, 655372, 0, 65542, 655373, 0, 10, 655374, 0, 10, 655375, 0, 10, 655376, 0, 10, 655377, 0, 10, 655378, 0, 10, 655379, 0, 10, 720896, 0, 131081, 720897, 0, 131081, 720898, 0, 131081, 720899, 0, 131081, 720900, 0, 131081, 720901, 0, 131081, 720902, 0, 131081, 720903, 0, 131081, 720904, 0, 131081, 720905, 0, 131081, 720906, 0, 131081, 720907, 0, 131081, 720908, 0, 131081, 720909, 0, 131081, 720910, 0, 131081, 720911, 0, 131081, 720912, 0, 131081, 720913, 0, 131081, 720914, 0, 131081, 720915, 0, 131081, 786432, 0, 196617, 786433, 0, 196617, 786434, 0, 196617, 786435, 0, 196617, 786436, 0, 196617, 786437, 0, 196617, 786438, 0, 196617, 786439, 0, 196617, 786440, 0, 196617, 786441, 0, 196617, 786442, 0, 196617, 786443, 0, 196617, 786444, 0, 196617, 786445, 0, 196617, 786446, 0, 196617, 786447, 0, 196617, 786448, 0, 196617, 786449, 0, 196617, 786450, 0, 196617, 786451, 0, 196619 )

[node name="Animated" type="TileMap" parent="."]
tile_set = ExtResource( 2 )
cell_size = Vector2( 10, 10 )
format = 1
tile_data = PoolIntArray( 524288, 2, 2, 524289, 2, 3, 524290, 2, 1, 524291, 2, 2, 524292, 2, 3, 524293, 2, 1, 524294, 2, 2, 524295, 1, 4, 589827, 0, 0, 589828, 0, 0, 655361, 0, 0, 655362, 0, 0, 655363, 0, 0, 655364, 0, 0, 655370, 0, 0, 655371, 0, 0, 655372, 0, 0, 720896, 0, 0, 720897, 0, 0, 720898, 0, 0, 720899, 0, 0, 720900, 0, 0, 720901, 0, 0, 720902, 0, 0, 720903, 0, 0, 720904, 0, 0, 720905, 0, 0, 720906, 0, 0, 720907, 0, 0, 720908, 0, 0 )

[node name="Conveyor" parent="." instance=ExtResource( 3 )]
position = Vector2( 40, 80 )
scale = Vector2( 8, 1 )
collision_layer = 0

[node name="SpawnPoint" parent="." instance=ExtResource( 4 )]
position = Vector2( 10, 73 )

[node name="UnlockPickup" parent="." instance=ExtResource( 5 )]
position = Vector2( 86, 74 )
feature = "move_right"
